Practicum 3 – JAMES Workshop
…
Als velden ontbreken (NA) zal de beslisboom terugvallen op defaults.

Opdracht 1

Zoek uit welke defaults de procedure gebruikt. En wat er gebeurt bij vreemde invoerwaarden? Zijn de keuzen logisch?

nlreferences package

We kunnen de referentie uit het nlreferences package halen met de load_reference() functie. Dit is een handige manier om de referentiewaarden te bekijken.

# show the preterm 27 weeks hdc reference
centile::load_reference(refcodes[3], pkg = "nlreferences")

# A tibble: 51 × 3
        x  mean    sd
    <dbl> <dbl> <dbl>
 1 0       24.4  1.50
 2 0.0027  24.5  1.50
 3 0.0055  24.6  1.50
 4 0.0082  24.7  1.50
 5 0.011   24.9  1.51
 6 0.0137  25    1.51
 7 0.0164  25.1  1.51
 8 0.0192  25.3  1.51
 9 0.0219  25.4  1.52
10 0.0246  25.5  1.52
# ℹ 41 more rows
…
